id,code,deliver
1,7580405459739,"2014-06-11 08:57:52"
2,7923423587344,"2014-06-10 03:56:00"
3,9808283681049,"2014-06-12 03:13:15"
4,8164667510427,"2014-06-12 11:10:46"
5,1696053468622,"2014-06-10 10:20:40"
6,8923275247216,"2014-06-12 04:59:18"
7,2386848838068,"2014-06-10 13:52:21"
8,5977190323174,"2014-06-11 20:10:42"
9,271476637572,"2014-06-09 23:40:53"
10,1436038077808,"2014-06-12 04:20:23"